{
    "success": true,
    "message": "تم استرجاع الخصومات والزيادات بنجاح.",
    "data": [
        {
            "id": "04f47ab5-75e9-4ddc-a56c-08dde2df113a",
            "name": "بضهغرطتوكي",
            "nameAr": "بضهغرطتوكي",
            "nameEn": "ttynqq",
            "type": {
                "id": 1,
                "name": "خصم",
                "color": "#007bff"
            },
            "coupon": "26h2bc",
            "fromDate": "2025-08-17T08:14:52.56",
            "toDate": "2025-08-30T08:14:52.56",
            "value": 230.00,
            "valueType": {
                "id": 2,
                "name": "مبلغ",
                "color": "#007bff"
            },
            "isActive": true,
            "laundary": {
                "id": "8e4bf5c9-01b4-4e4e-9367-aaca82722461",
                "name": "hef71cityz"
            },
            "quantity": 2,
            "createdAt": "2025-08-24T10:23:05.1104642",
            "ranks": [
                {
                    "id": "d192a9f7-b8d6-4b15-828b-3d37cc4407a2",
                    "name": "رتبة تجريبية",
                    "nameEn": "Test Rank",
                    "nameAr": "رتبة تجريبية"
                }
            ],
            "categories": [
                {
                    "id": "6aae6fc1-d11a-4abb-87ee-8367f6838353",
                    "name": "تصنيف 1",
                    "nameAr": "تصنيف 1",
                    "nameEn": "84itpp8s1v9d33dteohe",
                    "services": [
                        {
                            "id": "97f2bd68-32fa-474d-a485-4db113ca9e43",
                            "name": "خدمة 443",
                            "nameAr": "خدمة 443",
                            "nameEn": "new ",
                            "price": 11.00,
                            "branch": {
                                "id": "ea46dde6-47ef-4019-946b-f92161b1f3f4",
                                "name": "string"
                            }
                        }
                    ]
                }
            ],
            "beneficiaries": [
                {
                    "id": "72d2e920-627e-4f63-9aed-e4ab08da3ffe",
                    "name": "زينب ",
                    "nameAr": "Benefaciary Benefaciary Benefaciary",
                    "nameEn": "Benefaciary2 Benefaciary2 Benefaciary2",
                    "identityNo": "66666002",
                    "email": "52@rop.gov.ps",
                    "photo": "Uploads/Default.png",
                    "phoneNumber": "66666002",
                    "forceNo": "52"
                }
            ]
        },
        {
            "id": "a9024374-d384-4aa4-5c3e-08dde2dae7f6",
            "name": "يقودكذخرتف",
            "nameAr": "يقودكذخرتف",
            "nameEn": "5a2kg2",
            "type": {
                "id": 1,
                "name": "خصم",
                "color": "#007bff"
            },
            "coupon": "4bg97w",
            "fromDate": "2025-08-17T08:14:52.56",
            "toDate": "2025-08-30T08:14:52.56",
            "value": 230.00,
            "valueType": {
                "id": 2,
                "name": "مبلغ",
                "color": "#007bff"
            },
            "isActive": false,
            "laundary": {
                "id": "8e4bf5c9-01b4-4e4e-9367-aaca82722461",
                "name": "hef71cityz"
            },
            "quantity": 2,
            "createdAt": "2025-08-24T09:53:17.8658216",
            "ranks": [
                {
                    "id": "d192a9f7-b8d6-4b15-828b-3d37cc4407a2",
                    "name": "رتبة تجريبية",
                    "nameEn": "Test Rank",
                    "nameAr": "رتبة تجريبية"
                }
            ],
            "categories": [
                {
                    "id": "6aae6fc1-d11a-4abb-87ee-8367f6838353",
                    "name": "تصنيف 1",
                    "nameAr": "تصنيف 1",
                    "nameEn": "84itpp8s1v9d33dteohe",
                    "services": [
                        {
                            "id": "97f2bd68-32fa-474d-a485-4db113ca9e43",
                            "name": "خدمة 443",
                            "nameAr": "خدمة 443",
                            "nameEn": "new ",
                            "price": 11.00,
                            "branch": {
                                "id": "ea46dde6-47ef-4019-946b-f92161b1f3f4",
                                "name": "string"
                            }
                        }
                    ]
                }
            ],
            "beneficiaries": [
                {
                    "id": "72d2e920-627e-4f63-9aed-e4ab08da3ffe",
                    "name": "زينب ",
                    "nameAr": "Benefaciary Benefaciary Benefaciary",
                    "nameEn": "Benefaciary2 Benefaciary2 Benefaciary2",
                    "identityNo": "66666002",
                    "email": "52@rop.gov.ps",
                    "photo": "Uploads/Default.png",
                    "phoneNumber": "66666002",
                    "forceNo": "52"
                }
            ]
        },
        {
            "id": "16fd5364-375f-4cf0-4432-08dde0929833",
            "name": "تجربة1",
            "nameAr": "تجربة1",
            "nameEn": "test",
            "type": {
                "id": 2,
                "name": "زيادة",
                "color": "#ffc107"
            },
            "coupon": "BA22D",
            "fromDate": "2025-08-21T00:00:00",
            "toDate": "2025-08-30T00:00:00",
            "value": 5.00,
            "valueType": {
                "id": 1,
                "name": "نسبة",
                "color": "#28a745"
            },
            "isActive": false,
            "laundary": {
                "id": "8e4bf5c9-01b4-4e4e-9367-aaca82722461",
                "name": "hef71cityz"
            },
            "quantity": 20,
            "createdAt": "2025-08-21T15:18:51.6557949",
            "ranks": [
                {
                    "id": "d192a9f7-b8d6-4b15-828b-3d37cc4407a2",
                    "name": "رتبة تجريبية",
                    "nameEn": "Test Rank",
                    "nameAr": "رتبة تجريبية"
                }
            ],
            "categories": [
                {
                    "id": "6df3cf4a-1bef-4133-b2aa-965dd52a0988",
                    "name": "تصنيف 2",
                    "nameAr": "تصنيف 2",
                    "nameEn": "4g60htnuibkvmag42paf",
                    "services": [
                        {
                            "id": "aaf4953b-ecba-4654-be40-4023f4fe5b74",
                            "name": "تيست خدمة 4",
                            "nameAr": "تيست خدمة 4",
                            "nameEn": "test service 4",
                            "price": 30.00,
                            "branch": {
                                "id": "1d55f772-ead4-4dd4-9ba9-1ed9199b776b",
                                "name": "04kgaytbnf"
                            }
                        }
                    ]
                }
            ],
            "beneficiaries": [
                {
                    "id": "19024b1c-fbf9-4877-8e9d-5a5d9c180025",
                    "name": "Benefaciary Benefaciary Benefaciary Benefaciary",
                    "nameAr": "Benefaciary Benefaciary Benefaciary",
                    "nameEn": "Benefaciary Benefaciary Benefaciary",
                    "identityNo": "66666003",
                    "email": "51@rop.gov.ps",
                    "photo": "Uploads/Default.png",
                    "phoneNumber": "66666003",
                    "forceNo": "51"
                }
            ]
        },
        {
            "id": "97477a4a-1672-4852-4431-08dde0929833",
            "name": "خبتقفطيحدس",
            "nameAr": "خبتقفطيحدس",
            "nameEn": "1npgvc",
            "type": {
                "id": 1,
                "name": "خصم",
                "color": "#007bff"
            },
            "coupon": "kp7wob",
            "fromDate": "2025-08-17T08:14:52.56",
            "toDate": "2025-08-30T08:14:52.56",
            "value": 2.00,
            "valueType": {
                "id": 1,
                "name": "نسبة",
                "color": "#28a745"
            },
            "isActive": true,
            "laundary": {
                "id": "8e4bf5c9-01b4-4e4e-9367-aaca82722461",
                "name": "hef71cityz"
            },
            "quantity": 2,
            "createdAt": "2025-08-21T12:10:37.9795807",
            "ranks": [
                {
                    "id": "d192a9f7-b8d6-4b15-828b-3d37cc4407a2",
                    "name": "رتبة تجريبية",
                    "nameEn": "Test Rank",
                    "nameAr": "رتبة تجريبية"
                }
            ],
            "categories": [
                {
                    "id": "6aae6fc1-d11a-4abb-87ee-8367f6838353",
                    "name": "تصنيف 1",
                    "nameAr": "تصنيف 1",
                    "nameEn": "84itpp8s1v9d33dteohe",
                    "services": [
                        {
                            "id": "97f2bd68-32fa-474d-a485-4db113ca9e43",
                            "name": "خدمة 443",
                            "nameAr": "خدمة 443",
                            "nameEn": "new ",
                            "price": 11.00,
                            "branch": {
                                "id": "ea46dde6-47ef-4019-946b-f92161b1f3f4",
                                "name": "string"
                            }
                        }
                    ]
                }
            ],
            "beneficiaries": [
                {
                    "id": "72d2e920-627e-4f63-9aed-e4ab08da3ffe",
                    "name": "زينب ",
                    "nameAr": "Benefaciary Benefaciary Benefaciary",
                    "nameEn": "Benefaciary2 Benefaciary2 Benefaciary2",
                    "identityNo": "66666002",
                    "email": "52@rop.gov.ps",
                    "photo": "Uploads/Default.png",
                    "phoneNumber": "66666002",
                    "forceNo": "52"
                }
            ]
        },
        {
            "id": "25fcbc14-4084-4ef8-7560-08dde077400e",
            "name": "تيست3_100%",
            "nameAr": "تيست3_100%",
            "nameEn": "تيست3_100%",
            "type": {
                "id": 1,
                "name": "خصم",
                "color": "#007bff"
            },
            "coupon": null,
            "fromDate": "2025-08-21T00:00:00",
            "toDate": "2025-08-31T00:00:00",
            "value": 100.00,
            "valueType": {
                "id": 1,
                "name": "نسبة",
                "color": "#28a745"
            },
            "isActive": true,
            "laundary": {
                "id": "b06b3f75-9fe1-4ade-bff1-675339c159b5",
                "name": "مغسلة الاحتراف"
            },
            "quantity": 1,
            "createdAt": "2025-08-21T09:25:06.9878568",
            "ranks": [
                {
                    "id": "d192a9f7-b8d6-4b15-828b-3d37cc4407a2",
                    "name": "رتبة تجريبية",
                    "nameEn": "Test Rank",
                    "nameAr": "رتبة تجريبية"
                }
            ],
            "categories": [
                {
                    "id": "6df3cf4a-1bef-4133-b2aa-965dd52a0988",
                    "name": "تصنيف 2",
                    "nameAr": "تصنيف 2",
                    "nameEn": "4g60htnuibkvmag42paf",
                    "services": [
                        {
                            "id": "47afa665-0087-4154-bd07-6e3a9aece88c",
                            "name": "تيست خدمة 3",
                            "nameAr": "تيست خدمة 3",
                            "nameEn": "test service 3",
                            "price": 20.00,
                            "branch": {
                                "id": "88ed5d3f-837a-4f1f-b2dd-f22f5d6230de",
                                "name": "فرع الاحتراف 2"
                            }
                        }
                    ]
                }
            ],
            "beneficiaries": [
                
            ]
        },
        {
            "id": "33d09e4a-a1a4-40b5-755f-08dde077400e",
            "name": "تيست3_coupon",
            "nameAr": "تيست3_coupon",
            "nameEn": "تيست3_coupon",
            "type": {
                "id": 1,
                "name": "خصم",
                "color": "#007bff"
            },
            "coupon": "1B9E5",
            "fromDate": "2025-08-21T00:00:00",
            "toDate": "2025-08-31T00:00:00",
            "value": 50.00,
            "valueType": {
                "id": 1,
                "name": "نسبة",
                "color": "#28a745"
            },
            "isActive": true,
            "laundary": {
                "id": "b06b3f75-9fe1-4ade-bff1-675339c159b5",
                "name": "مغسلة الاحتراف"
            },
            "quantity": 2,
            "createdAt": "2025-08-21T09:22:12.2523035",
            "ranks": [
                {
                    "id": "d192a9f7-b8d6-4b15-828b-3d37cc4407a2",
                    "name": "رتبة تجريبية",
                    "nameEn": "Test Rank",
                    "nameAr": "رتبة تجريبية"
                }
            ],
            "categories": [
                {
                    "id": "6df3cf4a-1bef-4133-b2aa-965dd52a0988",
                    "name": "تصنيف 2",
                    "nameAr": "تصنيف 2",
                    "nameEn": "4g60htnuibkvmag42paf",
                    "services": [
                        {
                            "id": "987b0793-98c1-432c-bc5c-782b9b97c46b",
                            "name": "تيست خدمة 2",
                            "nameAr": "تيست خدمة 2",
                            "nameEn": "test service 2",
                            "price": 10.00,
                            "branch": {
                                "id": "88ed5d3f-837a-4f1f-b2dd-f22f5d6230de",
                                "name": "فرع الاحتراف 2"
                            }
                        },
                        {
                            "id": "47afa665-0087-4154-bd07-6e3a9aece88c",
                            "name": "تيست خدمة 3",
                            "nameAr": "تيست خدمة 3",
                            "nameEn": "test service 3",
                            "price": 20.00,
                            "branch": {
                                "id": "88ed5d3f-837a-4f1f-b2dd-f22f5d6230de",
                                "name": "فرع الاحتراف 2"
                            }
                        }
                    ]
                }
            ],
            "beneficiaries": [
                
            ]
        },
        {
            "id": "fb6118c6-52d3-48dc-755e-08dde077400e",
            "name": "تيست2_100%",
            "nameAr": "تيست2_100%",
            "nameEn": "تيست2_100%",
            "type": {
                "id": 1,
                "name": "خصم",
                "color": "#007bff"
            },
            "coupon": null,
            "fromDate": "2025-08-21T00:00:00",
            "toDate": "2025-08-31T00:00:00",
            "value": 100.00,
            "valueType": {
                "id": 1,
                "name": "نسبة",
                "color": "#28a745"
            },
            "isActive": true,
            "laundary": {
                "id": "b06b3f75-9fe1-4ade-bff1-675339c159b5",
                "name": "مغسلة الاحتراف"
            },
            "quantity": 1,
            "createdAt": "2025-08-21T09:20:23.1646051",
            "ranks": [
                {
                    "id": "d192a9f7-b8d6-4b15-828b-3d37cc4407a2",
                    "name": "رتبة تجريبية",
                    "nameEn": "Test Rank",
                    "nameAr": "رتبة تجريبية"
                }
            ],
            "categories": [
                {
                    "id": "6df3cf4a-1bef-4133-b2aa-965dd52a0988",
                    "name": "تصنيف 2",
                    "nameAr": "تصنيف 2",
                    "nameEn": "4g60htnuibkvmag42paf",
                    "services": [
                        {
                            "id": "987b0793-98c1-432c-bc5c-782b9b97c46b",
                            "name": "تيست خدمة 2",
                            "nameAr": "تيست خدمة 2",
                            "nameEn": "test service 2",
                            "price": 10.00,
                            "branch": {
                                "id": "88ed5d3f-837a-4f1f-b2dd-f22f5d6230de",
                                "name": "فرع الاحتراف 2"
                            }
                        }
                    ]
                }
            ],
            "beneficiaries": [
                
            ]
        },
        {
            "id": "620507c6-34ee-473a-755d-08dde077400e",
            "name": "تيست22",
            "nameAr": "تيست22",
            "nameEn": "تيست22",
            "type": {
                "id": 1,
                "name": "خصم",
                "color": "#007bff"
            },
            "coupon": null,
            "fromDate": "2025-08-21T00:00:00",
            "toDate": "2025-08-31T00:00:00",
            "value": 5.00,
            "valueType": {
                "id": 1,
                "name": "نسبة",
                "color": "#28a745"
            },
            "isActive": true,
            "laundary": {
                "id": "b06b3f75-9fe1-4ade-bff1-675339c159b5",
                "name": "مغسلة الاحتراف"
            },
            "quantity": 1,
            "createdAt": "2025-08-21T09:12:39.1120644",
            "ranks": [
                {
                    "id": "d192a9f7-b8d6-4b15-828b-3d37cc4407a2",
                    "name": "رتبة تجريبية",
                    "nameEn": "Test Rank",
                    "nameAr": "رتبة تجريبية"
                }
            ],
            "categories": [
                {
                    "id": "6df3cf4a-1bef-4133-b2aa-965dd52a0988",
                    "name": "تصنيف 2",
                    "nameAr": "تصنيف 2",
                    "nameEn": "4g60htnuibkvmag42paf",
                    "services": [
                        {
                            "id": "987b0793-98c1-432c-bc5c-782b9b97c46b",
                            "name": "تيست خدمة 2",
                            "nameAr": "تيست خدمة 2",
                            "nameEn": "test service 2",
                            "price": 10.00,
                            "branch": {
                                "id": "88ed5d3f-837a-4f1f-b2dd-f22f5d6230de",
                                "name": "فرع الاحتراف 2"
                            }
                        }
                    ]
                }
            ],
            "beneficiaries": [
                
            ]
        },
        {
            "id": "36390aa8-a65b-4943-755c-08dde077400e",
            "name": "offerAR",
            "nameAr": "offerAR",
            "nameEn": "offerEN",
            "type": {
                "id": 1,
                "name": "خصم",
                "color": "#007bff"
            },
            "coupon": "coupon",
            "fromDate": "2025-08-22T05:50:02.725",
            "toDate": "2025-08-23T05:50:02.725",
            "value": 2.00,
            "valueType": {
                "id": 1,
                "name": "نسبة",
                "color": "#28a745"
            },
            "isActive": true,
            "laundary": {
                "id": "b06b3f75-9fe1-4ade-bff1-675339c159b5",
                "name": "مغسلة الاحتراف"
            },
            "quantity": 2,
            "createdAt": "2025-08-21T08:54:53.683128",
            "ranks": [
                {
                    "id": "d192a9f7-b8d6-4b15-828b-3d37cc4407a2",
                    "name": "رتبة تجريبية",
                    "nameEn": "Test Rank",
                    "nameAr": "رتبة تجريبية"
                }
            ],
            "categories": [
                {
                    "id": "6df3cf4a-1bef-4133-b2aa-965dd52a0988",
                    "name": "تصنيف 2",
                    "nameAr": "تصنيف 2",
                    "nameEn": "4g60htnuibkvmag42paf",
                    "services": [
                        {
                            "id": "47afa665-0087-4154-bd07-6e3a9aece88c",
                            "name": "تيست خدمة 3",
                            "nameAr": "تيست خدمة 3",
                            "nameEn": "test service 3",
                            "price": 20.00,
                            "branch": {
                                "id": "88ed5d3f-837a-4f1f-b2dd-f22f5d6230de",
                                "name": "فرع الاحتراف 2"
                            }
                        }
                    ]
                }
            ],
            "beneficiaries": [
                
            ]
        },
        {
            "id": "d602141e-e414-4143-e331-08dddfece542",
            "name": "تيست34_20%\t",
            "nameAr": "تيست34_20%\t",
            "nameEn": "تيست34_20%\t",
            "type": {
                "id": 1,
                "name": "خصم",
                "color": "#007bff"
            },
            "coupon": null,
            "fromDate": "2025-08-20T00:00:00",
            "toDate": "2025-08-28T00:00:00",
            "value": 30.00,
            "valueType": {
                "id": 1,
                "name": "نسبة",
                "color": "#28a745"
            },
            "isActive": true,
            "laundary": {
                "id": "b06b3f75-9fe1-4ade-bff1-675339c159b5",
                "name": "مغسلة الاحتراف"
            },
            "quantity": 3,
            "createdAt": "2025-08-20T17:04:45.3313679",
            "ranks": [
                {
                    "id": "d192a9f7-b8d6-4b15-828b-3d37cc4407a2",
                    "name": "رتبة تجريبية",
                    "nameEn": "Test Rank",
                    "nameAr": "رتبة تجريبية"
                }
            ],
            "categories": [
                {
                    "id": "6df3cf4a-1bef-4133-b2aa-965dd52a0988",
                    "name": "تصنيف 2",
                    "nameAr": "تصنيف 2",
                    "nameEn": "4g60htnuibkvmag42paf",
                    "services": [
                        {
                            "id": "47afa665-0087-4154-bd07-6e3a9aece88c",
                            "name": "تيست خدمة 3",
                            "nameAr": "تيست خدمة 3",
                            "nameEn": "test service 3",
                            "price": 20.00,
                            "branch": {
                                "id": "88ed5d3f-837a-4f1f-b2dd-f22f5d6230de",
                                "name": "فرع الاحتراف 2"
                            }
                        },
                        {
                            "id": "aaf4953b-ecba-4654-be40-4023f4fe5b74",
                            "name": "تيست خدمة 4",
                            "nameAr": "تيست خدمة 4",
                            "nameEn": "test service 4",
                            "price": 30.00,
                            "branch": {
                                "id": "88ed5d3f-837a-4f1f-b2dd-f22f5d6230de",
                                "name": "فرع الاحتراف 2"
                            }
                        }
                    ]
                }
            ],
            "beneficiaries": [
                
            ]
        }
    ],
    "errors": null,
    "pagination": {
        "totalRecords": 43,
        "pageNumber": 1,
        "pageSize": 10,
        "totalPages": 5,
        "hasNextPage": true,
        "hasPreviousPage": false,
        "isPaginated": true
    },
    "statusCode": 200
}