{
    "success": true,
    "message": "تم استرجاع الباقات بنجاح.",
    "data": [
        {
            "id": "bdaaca65-c593-4de8-b943-08dde2d5007f",
            "name": "uw87qjb6h3",
            "nameAr": "uw87qjb6h3",
            "nameEn": "dev7ttntnf",
            "price": 10.00,
            "toDate": "2025-09-30T12:47:34.078",
            "duration": 10,
            "quantity": 5,
            "categories": [
                {
                    "id": "6aae6fc1-d11a-4abb-87ee-8367f6838353",
                    "name": "تصنيف 1",
                    "nameAr": "تصنيف 1",
                    "nameEn": "84itpp8s1v9d33dteohe",
                    "services": [
                        {
                            "id": "97f2bd68-32fa-474d-a485-4db113ca9e43",
                            "name": "خدمة 443",
                            "nameAr": "خدمة 443",
                            "nameEn": "new ",
                            "quantity": 5,
                            "price": 11.00,
                            "totalPrice": 55.00
                        }
                    ]
                }
            ]
        },
        {
            "id": "2f710f46-33c1-4df5-b942-08dde2d5007f",
            "name": "string",
            "nameAr": "string",
            "nameEn": "string",
            "price": 90.00,
            "toDate": "2025-08-25T10:52:20.119",
            "duration": 10,
            "quantity": 10,
            "categories": [
                {
                    "id": "6aae6fc1-d11a-4abb-87ee-8367f6838353",
                    "name": "تصنيف 1",
                    "nameAr": "تصنيف 1",
                    "nameEn": "84itpp8s1v9d33dteohe",
                    "services": [
                        {
                            "id": "97f2bd68-32fa-474d-a485-4db113ca9e43",
                            "name": "خدمة 443",
                            "nameAr": "خدمة 443",
                            "nameEn": "new ",
                            "quantity": 10,
                            "price": 11.00,
                            "totalPrice": 110.00
                        }
                    ]
                }
            ]
        },
        {
            "id": "f75cfe1e-8099-4c1c-b940-08dde2d5007f",
            "name": "string",
            "nameAr": "string",
            "nameEn": "string",
            "price": 90.00,
            "toDate": "2025-08-25T10:52:20.119",
            "duration": 10,
            "quantity": 10,
            "categories": [
                {
                    "id": "6aae6fc1-d11a-4abb-87ee-8367f6838353",
                    "name": "تصنيف 1",
                    "nameAr": "تصنيف 1",
                    "nameEn": "84itpp8s1v9d33dteohe",
                    "services": [
                        {
                            "id": "97f2bd68-32fa-474d-a485-4db113ca9e43",
                            "name": "خدمة 443",
                            "nameAr": "خدمة 443",
                            "nameEn": "new ",
                            "quantity": 10,
                            "price": 11.00,
                            "totalPrice": 110.00
                        }
                    ]
                }
            ]
        },
        {
            "id": "1e164e5b-1d2d-4d36-c88a-08dde07431f8",
            "name": "تست 1",
            "nameAr": "تست 1",
            "nameEn": "test 1",
            "price": 200.00,
            "toDate": "2025-08-29T00:00:00",
            "duration": 10,
            "quantity": 5,
            "categories": [
                {
                    "id": "6df3cf4a-1bef-4133-b2aa-965dd52a0988",
                    "name": "تصنيف 2",
                    "nameAr": "تصنيف 2",
                    "nameEn": "4g60htnuibkvmag42paf",
                    "services": [
                        {
                            "id": "aaf4953b-ecba-4654-be40-4023f4fe5b74",
                            "name": "تيست خدمة 4",
                            "nameAr": "تيست خدمة 4",
                            "nameEn": "test service 4",
                            "quantity": 5,
                            "price": 30.00,
                            "totalPrice": 150.00
                        }
                    ]
                }
            ]
        },
        {
            "id": "faf297d0-c90d-4a63-b6d3-08dddfdacdd1",
            "name": "string",
            "nameAr": "string",
            "nameEn": "string",
            "price": 90.00,
            "toDate": "2025-08-27T00:00:00",
            "duration": 10,
            "quantity": 10,
            "categories": [
                {
                    "id": "6aae6fc1-d11a-4abb-87ee-8367f6838353",
                    "name": "تصنيف 1",
                    "nameAr": "تصنيف 1",
                    "nameEn": "84itpp8s1v9d33dteohe",
                    "services": [
                        {
                            "id": "97f2bd68-32fa-474d-a485-4db113ca9e43",
                            "name": "خدمة 443",
                            "nameAr": "خدمة 443",
                            "nameEn": "new ",
                            "quantity": 10,
                            "price": 11.00,
                            "totalPrice": 110.00
                        }
                    ]
                }
            ]
        },
        {
            "id": "a535832a-57b4-4352-2245-08dddfc05dab",
            "name": "string",
            "nameAr": "string",
            "nameEn": "string",
            "price": 90.00,
            "toDate": "2025-08-25T00:00:00",
            "duration": 10,
            "quantity": 10,
            "categories": [
                {
                    "id": "6aae6fc1-d11a-4abb-87ee-8367f6838353",
                    "name": "تصنيف 1",
                    "nameAr": "تصنيف 1",
                    "nameEn": "84itpp8s1v9d33dteohe",
                    "services": [
                        {
                            "id": "97f2bd68-32fa-474d-a485-4db113ca9e43",
                            "name": "خدمة 443",
                            "nameAr": "خدمة 443",
                            "nameEn": "new ",
                            "quantity": 10,
                            "price": 11.00,
                            "totalPrice": 110.00
                        }
                    ]
                }
            ]
        },
        {
            "id": "ad0caf60-4609-4fba-2243-08dddfc05dab",
            "name": "string",
            "nameAr": "string",
            "nameEn": "string",
            "price": 90.00,
            "toDate": "2025-08-25T10:52:20.119",
            "duration": 10,
            "quantity": 10,
            "categories": [
                {
                    "id": "6aae6fc1-d11a-4abb-87ee-8367f6838353",
                    "name": "تصنيف 1",
                    "nameAr": "تصنيف 1",
                    "nameEn": "84itpp8s1v9d33dteohe",
                    "services": [
                        {
                            "id": "97f2bd68-32fa-474d-a485-4db113ca9e43",
                            "name": "خدمة 443",
                            "nameAr": "خدمة 443",
                            "nameEn": "new ",
                            "quantity": 10,
                            "price": 11.00,
                            "totalPrice": 110.00
                        }
                    ]
                }
            ]
        },
        {
            "id": "034590f0-0d61-42f5-2242-08dddfc05dab",
            "name": "نيو ميزة dd",
            "nameAr": "نيو ميزة dd",
            "nameEn": "new ",
            "price": 11.00,
            "toDate": "2025-08-31T00:00:00",
            "duration": 11,
            "quantity": 4,
            "categories": [
                {
                    "id": "6aae6fc1-d11a-4abb-87ee-8367f6838353",
                    "name": "تصنيف 1",
                    "nameAr": "تصنيف 1",
                    "nameEn": "84itpp8s1v9d33dteohe",
                    "services": [
                        {
                            "id": "e679d686-48ae-4b5d-ae64-166d4986cb76",
                            "name": "خدمة 12",
                            "nameAr": "خدمة 12",
                            "nameEn": "211",
                            "quantity": 4,
                            "price": 11.00,
                            "totalPrice": 44.00
                        }
                    ]
                }
            ]
        },
        {
            "id": "bd858538-5a9b-4924-812d-08dddfb453b3",
            "name": "string",
            "nameAr": "string",
            "nameEn": "string",
            "price": 90.00,
            "toDate": "2025-08-25T10:52:20.119",
            "duration": 10,
            "quantity": 10,
            "categories": [
                {
                    "id": "6aae6fc1-d11a-4abb-87ee-8367f6838353",
                    "name": "تصنيف 1",
                    "nameAr": "تصنيف 1",
                    "nameEn": "84itpp8s1v9d33dteohe",
                    "services": [
                        {
                            "id": "97f2bd68-32fa-474d-a485-4db113ca9e43",
                            "name": "خدمة 443",
                            "nameAr": "خدمة 443",
                            "nameEn": "new ",
                            "quantity": 10,
                            "price": 11.00,
                            "totalPrice": 110.00
                        }
                    ]
                }
            ]
        },
        {
            "id": "cae83926-2412-49a7-812c-08dddfb453b3",
            "name": "string",
            "nameAr": "string",
            "nameEn": "string",
            "price": 90.00,
            "toDate": "2025-08-25T10:52:20.119",
            "duration": 10,
            "quantity": 10,
            "categories": [
                {
                    "id": "6aae6fc1-d11a-4abb-87ee-8367f6838353",
                    "name": "تصنيف 1",
                    "nameAr": "تصنيف 1",
                    "nameEn": "84itpp8s1v9d33dteohe",
                    "services": [
                        {
                            "id": "97f2bd68-32fa-474d-a485-4db113ca9e43",
                            "name": "خدمة 443",
                            "nameAr": "خدمة 443",
                            "nameEn": "new ",
                            "quantity": 10,
                            "price": 11.00,
                            "totalPrice": 110.00
                        }
                    ]
                }
            ]
        }
    ],
    "errors": null,
    "pagination": {
        "totalRecords": 26,
        "pageNumber": 1,
        "pageSize": 10,
        "totalPages": 3,
        "hasNextPage": true,
        "hasPreviousPage": false,
        "isPaginated": true
    },
    "statusCode": 200
}