{
    "success": true,
    "message": null,
    "data": [
        {
            "id": "8aacd3a7-dc25-4541-8c11-b3cca0b43df8",
            "name": "تصنيف 3",
            "nameAr": "تصنيف 3",
            "nameEn": "d17q4o1xn0u6vwisk44p",
            "isActive": true
        },
        {
            "id": "e267cf63-ca11-4325-9936-c7e9cd4f0507",
            "name": "تصنيف 4",
            "nameAr": "تصنيف 4",
            "nameEn": "oya3jg95vp3vz6nza90f",
            "isActive": true
        },
        {
            "id": "92e39cf7-7041-4fa9-a60c-903e11ee96dc",
            "name": "تصنيف 5",
            "nameAr": "تصنيف 5",
            "nameEn": "r7qmji4ptezu4hnmitex",
            "isActive": true
        },
        {
            "id": "01b0a9b8-2e23-441f-9326-338e5a55c239",
            "name": "تصنيف 6",
            "nameAr": "تصنيف 6",
            "nameEn": "n8kyrl5pcbf5ctsdu3ca",
            "isActive": true
        },
        {
            "id": "13cf5703-d58f-4e9f-905d-8026be9d3423",
            "name": "تصنيف 7",
            "nameAr": "تصنيف 7",
            "nameEn": "y1i1ww0zm8yiv99cqo6n",
            "isActive": true
        },
        {
            "id": "11f5d325-14be-4b7c-8a32-fd6680e7704a",
            "name": "تصنيف 8",
            "nameAr": "تصنيف 8",
            "nameEn": "kgrj8nnfyovk1q0s336d",
            "isActive": true
        }
    ],
    "pagination": {
        "totalRecords": 13,
        "pageNumber": 2,
        "pageSize": 7,
        "totalPages": 2,
        "hasNextPage": false,
        "hasPreviousPage": true,
        "isPaginated": true
    }
}