{
    "success": true,
    "message": "نجاح",
    "data": [
        {
            "id": "1d55f772-ead4-4dd4-9ba9-1ed9199b776b",
            "name": "04kgaytbnf",
            "cityName": null,
            "cityNameAr": "البريمي",
            "cityNameEn": "Al Buraimi",
            "stateNameAr": "قريات",
            "stateNameEn": "Qurayyat",
            "areaNameAr": "روي",
            "areaNameEn": "Ruwi",
            "location": "{\"location\":\"7HMW88CH+Q5\",\"countryCode\":\"OM\",\"longitude\":58.32796819173696,\"latitude\":23.321926243728676,\"dialCode\":\"968\",\"city\":\"مسقط\",\"cityId\":\"472f1eca-65b1-44b1-c283-08ddad82b7e7\",\"state\":\"السيب\",\"stateId\":\"cb6a19c3-1b6c-4de2-c137-08ddae4affbd\",\"area\":\"المنطقة التجارية\",\"areaId\":\"2217e8a9-0437-4b57-b17e-08ddae4b0018\"}",
            "description": null,
            "phoneNumber": "4024069394",
            "email": "mathilda.hilll@hotmail.com",
            "isActive": true,
            "totalDailyOrder": 0,
            "branchStatus": 1,
            "telePhone": "3604871027",
            "cityId": "472f1eca-65b1-44b1-c283-08ddad82b7e7",
            "stateId": "cb6a19c3-1b6c-4de2-c137-08ddae4affbd",
            "areaId": "2217e8a9-0437-4b57-b17e-08ddae4b0018",
            "laundaryId": "8e4bf5c9-01b4-4e4e-9367-aaca82722461",
            "laundaryName": "hef71cityz"
        },
        {
            "id": "c2eaac6b-2f2b-424d-b61e-270a65e180d4",
            "name": "059qa43o38",
            "cityName": null,
            "cityNameAr": "البريمي",
            "cityNameEn": "Al Buraimi",
            "stateNameAr": "قريات",
            "stateNameEn": "Qurayyat",
            "areaNameAr": "روي",
            "areaNameEn": "Ruwi",
            "location": "{\"location\":\"7HMW88CH+Q5\",\"countryCode\":\"OM\",\"longitude\":58.32796819173696,\"latitude\":23.321926243728676,\"dialCode\":\"968\",\"city\":\"مسقط\",\"cityId\":\"472f1eca-65b1-44b1-c283-08ddad82b7e7\",\"state\":\"السيب\",\"stateId\":\"cb6a19c3-1b6c-4de2-c137-08ddae4affbd\",\"area\":\"المنطقة التجارية\",\"areaId\":\"2217e8a9-0437-4b57-b17e-08ddae4b0018\"}",
            "description": null,
            "phoneNumber": "5994883981",
            "email": "libbie.kovacek@gmail.com",
            "isActive": true,
            "totalDailyOrder": 0,
            "branchStatus": 1,
            "telePhone": "0056715781",
            "cityId": "472f1eca-65b1-44b1-c283-08ddad82b7e7",
            "stateId": "cb6a19c3-1b6c-4de2-c137-08ddae4affbd",
            "areaId": "2217e8a9-0437-4b57-b17e-08ddae4b0018",
            "laundaryId": "8e4bf5c9-01b4-4e4e-9367-aaca82722461",
            "laundaryName": "hef71cityz"
        },
        {
            "id": "ed9cf74b-eeae-4f99-8e7a-8073bb4c63ac",
            "name": "10rxkrfzy6",
            "cityName": null,
            "cityNameAr": "مسقط",
            "cityNameEn": "Muscat",
            "stateNameAr": "السيب",
            "stateNameEn": "Al Seeb",
            "areaNameAr": "المنطقة التجارية",
            "areaNameEn": "Sur",
            "location": "{\"location\":\"7HMW88CH+Q5\",\"countryCode\":\"OM\",\"longitude\":58.32796819173696,\"latitude\":23.321926243728676,\"dialCode\":\"968\",\"city\":\"مسقط\",\"cityId\":\"e535d84d-f11f-44bd-c27c-08ddad82b7e7\",\"state\":\"السيب\",\"stateId\":\"9413e922-b272-4918-c136-08ddae4affbd\",\"area\":\"المنطقة التجارية\",\"areaId\":\"b5e68042-4922-469e-b189-08ddae4b0018\"}",
            "description": null,
            "phoneNumber": "5180731693",
            "email": "an.macejkovic@gmail.com",
            "isActive": true,
            "totalDailyOrder": 0,
            "branchStatus": 1,
            "telePhone": "3730246153",
            "cityId": "e535d84d-f11f-44bd-c27c-08ddad82b7e7",
            "stateId": "9413e922-b272-4918-c136-08ddae4affbd",
            "areaId": "b5e68042-4922-469e-b189-08ddae4b0018",
            "laundaryId": "8e4bf5c9-01b4-4e4e-9367-aaca82722461",
            "laundaryName": "hef71cityz"
        },
        {
            "id": "06a1b345-a596-4b1b-a203-b14f36ecec71",
            "name": "1cx60ufabs",
            "cityName": null,
            "cityNameAr": "مسقط",
            "cityNameEn": "Muscat",
            "stateNameAr": "السيب",
            "stateNameEn": "Al Seeb",
            "areaNameAr": "المنطقة التجارية",
            "areaNameEn": "Sur",
            "location": "{\"location\":\"7HMW88CH+Q5\",\"countryCode\":\"OM\",\"longitude\":58.32796819173696,\"latitude\":23.321926243728676,\"dialCode\":\"968\",\"city\":\"مسقط\",\"cityId\":\"e535d84d-f11f-44bd-c27c-08ddad82b7e7\",\"state\":\"السيب\",\"stateId\":\"9413e922-b272-4918-c136-08ddae4affbd\",\"area\":\"المنطقة التجارية\",\"areaId\":\"b5e68042-4922-469e-b189-08ddae4b0018\"}",
            "description": null,
            "phoneNumber": "2992571716",
            "email": "elmo.johnson@hotmail.com",
            "isActive": true,
            "totalDailyOrder": 0,
            "branchStatus": 1,
            "telePhone": "0441778344",
            "cityId": "e535d84d-f11f-44bd-c27c-08ddad82b7e7",
            "stateId": "9413e922-b272-4918-c136-08ddae4affbd",
            "areaId": "b5e68042-4922-469e-b189-08ddae4b0018",
            "laundaryId": "8e4bf5c9-01b4-4e4e-9367-aaca82722461",
            "laundaryName": "hef71cityz"
        },
        {
            "id": "1222ad82-d50d-424e-a46c-1a038aff4dfc",
            "name": "1d8i9rcz5m",
            "cityName": null,
            "cityNameAr": "مسقط",
            "cityNameEn": "Muscat",
            "stateNameAr": "السيب",
            "stateNameEn": "Al Seeb",
            "areaNameAr": "المنطقة التجارية",
            "areaNameEn": "Sur",
            "location": "{\"location\":\"7HMW88CH+Q5\",\"countryCode\":\"OM\",\"longitude\":58.32796819173696,\"latitude\":23.321926243728676,\"dialCode\":\"968\",\"city\":\"مسقط\",\"cityId\":\"e535d84d-f11f-44bd-c27c-08ddad82b7e7\",\"state\":\"السيب\",\"stateId\":\"9413e922-b272-4918-c136-08ddae4affbd\",\"area\":\"المنطقة التجارية\",\"areaId\":\"b5e68042-4922-469e-b189-08ddae4b0018\"}",
            "description": null,
            "phoneNumber": "0546438022",
            "email": "bobby.bergnaum@yahoo.com",
            "isActive": true,
            "totalDailyOrder": 0,
            "branchStatus": 1,
            "telePhone": "1217513622",
            "cityId": "e535d84d-f11f-44bd-c27c-08ddad82b7e7",
            "stateId": "9413e922-b272-4918-c136-08ddae4affbd",
            "areaId": "b5e68042-4922-469e-b189-08ddae4b0018",
            "laundaryId": "8e4bf5c9-01b4-4e4e-9367-aaca82722461",
            "laundaryName": "hef71cityz"
        },
        {
            "id": "053a025d-5424-42b8-ba7b-6020406381ec",
            "name": "1l7aj96p1k",
            "cityName": null,
            "cityNameAr": "مسقط",
            "cityNameEn": "Muscat",
            "stateNameAr": "السيب",
            "stateNameEn": "Al Seeb",
            "areaNameAr": "المنطقة التجارية",
            "areaNameEn": "Sur",
            "location": "{\"location\":\"7HMW88CH+Q5\",\"countryCode\":\"OM\",\"longitude\":58.32796819173696,\"latitude\":23.321926243728676,\"dialCode\":\"968\",\"city\":\"مسقط\",\"cityId\":\"e535d84d-f11f-44bd-c27c-08ddad82b7e7\",\"state\":\"السيب\",\"stateId\":\"9413e922-b272-4918-c136-08ddae4affbd\",\"area\":\"المنطقة التجارية\",\"areaId\":\"b5e68042-4922-469e-b189-08ddae4b0018\"}",
            "description": null,
            "phoneNumber": "4435113129",
            "email": "lacresha.mayer@hotmail.com",
            "isActive": true,
            "totalDailyOrder": 0,
            "branchStatus": 1,
            "telePhone": "6449879210",
            "cityId": "e535d84d-f11f-44bd-c27c-08ddad82b7e7",
            "stateId": "9413e922-b272-4918-c136-08ddae4affbd",
            "areaId": "b5e68042-4922-469e-b189-08ddae4b0018",
            "laundaryId": "8e4bf5c9-01b4-4e4e-9367-aaca82722461",
            "laundaryName": "hef71cityz"
        },
        {
            "id": "8ab6d6f8-f273-4423-83ca-6976c39aa357",
            "name": "1vmwcbqop8",
            "cityName": null,
            "cityNameAr": "مسقط",
            "cityNameEn": "Muscat",
            "stateNameAr": "السيب",
            "stateNameEn": "Al Seeb",
            "areaNameAr": "المنطقة التجارية",
            "areaNameEn": "Sur",
            "location": "{\"location\":\"7HMW88CH+Q5\",\"countryCode\":\"OM\",\"longitude\":58.32796819173696,\"latitude\":23.321926243728676,\"dialCode\":\"968\",\"city\":\"مسقط\",\"cityId\":\"e535d84d-f11f-44bd-c27c-08ddad82b7e7\",\"state\":\"السيب\",\"stateId\":\"9413e922-b272-4918-c136-08ddae4affbd\",\"area\":\"المنطقة التجارية\",\"areaId\":\"b5e68042-4922-469e-b189-08ddae4b0018\"}",
            "description": null,
            "phoneNumber": "5020167260",
            "email": "mose.rutherford@hotmail.com",
            "isActive": true,
            "totalDailyOrder": 0,
            "branchStatus": 1,
            "telePhone": "8557989535",
            "cityId": "e535d84d-f11f-44bd-c27c-08ddad82b7e7",
            "stateId": "9413e922-b272-4918-c136-08ddae4affbd",
            "areaId": "b5e68042-4922-469e-b189-08ddae4b0018",
            "laundaryId": "8e4bf5c9-01b4-4e4e-9367-aaca82722461",
            "laundaryName": "hef71cityz"
        },
        {
            "id": "e2e23659-9249-4438-b99e-e56f51d6bacf",
            "name": "29tnucawe4",
            "cityName": null,
            "cityNameAr": "مسقط",
            "cityNameEn": "Muscat",
            "stateNameAr": "السيب",
            "stateNameEn": "Al Seeb",
            "areaNameAr": "المنطقة التجارية",
            "areaNameEn": "Sur",
            "location": "{\"location\":\"7HMW88CH+Q5\",\"countryCode\":\"OM\",\"longitude\":58.32796819173696,\"latitude\":23.321926243728676,\"dialCode\":\"968\",\"city\":\"مسقط\",\"cityId\":\"e535d84d-f11f-44bd-c27c-08ddad82b7e7\",\"state\":\"السيب\",\"stateId\":\"9413e922-b272-4918-c136-08ddae4affbd\",\"area\":\"المنطقة التجارية\",\"areaId\":\"b5e68042-4922-469e-b189-08ddae4b0018\"}",
            "description": null,
            "phoneNumber": "2832115601",
            "email": "jadwiga.borer@gmail.com",
            "isActive": true,
            "totalDailyOrder": 0,
            "branchStatus": 1,
            "telePhone": "8548635837",
            "cityId": "e535d84d-f11f-44bd-c27c-08ddad82b7e7",
            "stateId": "9413e922-b272-4918-c136-08ddae4affbd",
            "areaId": "b5e68042-4922-469e-b189-08ddae4b0018",
            "laundaryId": "8e4bf5c9-01b4-4e4e-9367-aaca82722461",
            "laundaryName": "hef71cityz"
        },
        {
            "id": "6e3c5d5f-58b3-46b9-b2b8-d0fb2eca0863",
            "name": "30rayb2lcl",
            "cityName": null,
            "cityNameAr": "مسقط",
            "cityNameEn": "Muscat",
            "stateNameAr": "السيب",
            "stateNameEn": "Al Seeb",
            "areaNameAr": "المنطقة التجارية",
            "areaNameEn": "Sur",
            "location": "{\"location\":\"7HMW88CH+Q5\",\"countryCode\":\"OM\",\"longitude\":58.32796819173696,\"latitude\":23.321926243728676,\"dialCode\":\"968\",\"city\":\"مسقط\",\"cityId\":\"e535d84d-f11f-44bd-c27c-08ddad82b7e7\",\"state\":\"السيب\",\"stateId\":\"9413e922-b272-4918-c136-08ddae4affbd\",\"area\":\"المنطقة التجارية\",\"areaId\":\"b5e68042-4922-469e-b189-08ddae4b0018\"}",
            "description": null,
            "phoneNumber": "6631293618",
            "email": "damaris.hermiston@gmail.com",
            "isActive": true,
            "totalDailyOrder": 0,
            "branchStatus": 1,
            "telePhone": "3816179178",
            "cityId": "e535d84d-f11f-44bd-c27c-08ddad82b7e7",
            "stateId": "9413e922-b272-4918-c136-08ddae4affbd",
            "areaId": "b5e68042-4922-469e-b189-08ddae4b0018",
            "laundaryId": "8e4bf5c9-01b4-4e4e-9367-aaca82722461",
            "laundaryName": "hef71cityz"
        },
        {
            "id": "9db8eb76-d730-45e5-bec2-561b6db5d56b",
            "name": "35jplmam34",
            "cityName": null,
            "cityNameAr": "مسقط",
            "cityNameEn": "Muscat",
            "stateNameAr": "السيب",
            "stateNameEn": "Al Seeb",
            "areaNameAr": "المنطقة التجارية",
            "areaNameEn": "Sur",
            "location": "{\"location\":\"7HMW88CH+Q5\",\"countryCode\":\"OM\",\"longitude\":58.32796819173696,\"latitude\":23.321926243728676,\"dialCode\":\"968\",\"city\":\"مسقط\",\"cityId\":\"e535d84d-f11f-44bd-c27c-08ddad82b7e7\",\"state\":\"السيب\",\"stateId\":\"9413e922-b272-4918-c136-08ddae4affbd\",\"area\":\"المنطقة التجارية\",\"areaId\":\"b5e68042-4922-469e-b189-08ddae4b0018\"}",
            "description": null,
            "phoneNumber": "8831838181",
            "email": "judson.champlin@yahoo.com",
            "isActive": true,
            "totalDailyOrder": 0,
            "branchStatus": 1,
            "telePhone": "8524747002",
            "cityId": "e535d84d-f11f-44bd-c27c-08ddad82b7e7",
            "stateId": "9413e922-b272-4918-c136-08ddae4affbd",
            "areaId": "b5e68042-4922-469e-b189-08ddae4b0018",
            "laundaryId": "8e4bf5c9-01b4-4e4e-9367-aaca82722461",
            "laundaryName": "hef71cityz"
        }
    ],
    "errors": null,
    "pagination": {
        "totalRecords": 248,
        "pageNumber": 1,
        "pageSize": 10,
        "totalPages": 25,
        "hasNextPage": true,
        "hasPreviousPage": false,
        "isPaginated": true
    },
    "statusCode": 200
}